{
  "type": "service_account",
  "project_id": "flexwork---notifications",
  "private_key_id": "240bfbf29a3e8959698d4b8a2fcc4eed7007e61d",
  "private_key": "-----BEGIN PRIVATE KEY-----\nMIIEvQIBADANBgkqhkiG9w0BAQEFAASCBKcwggSjAgEAAoIBAQC/7zJuf7I0r3sM\nbT0c5UXiK4xlWAijhAXZvZBAokHoQYaBMjBEOdMVLTYcCMr10wOYaiSccgKOoq1T\nnfDn/1xqiGUIJTOAjmgxmCc9jcy8S8JxoDju2x3q4mEQPiOERf+phty5JOFtjSss\n/Yt/kT16PdHJqXPst46oSQut/FOqUR38UyXX7T7EuPol5rWNfmKgzEi3j4XQGnUb\nxd0PloDGPyWhJZq18VuY3b/oHvyUt8OCekQAfb+NQ0lJqkXFWRiD8VIdqhQbak+5\n0Wv6u5AncJ7rp96RpIW1xF92ww9FvOLxIJfbk7fxQWaT1q6dbncAo0m5TefShaOE\n+ePGeRYrAgMBAAECggEACBPC5Y+OKlVwMjeuqLalWD1I7ULlKix2KpGlrnKln2aS\niIFaMqTUU0HR0yAzmmDE9/cPj13k6afC74/oAXtnojwXNF6Mak6T5/JlRFvhT9NI\nXYvGmZazDZ11RD+5MunXNoUsaMY6jmewd3Y8FqRAGBLd70SoUj/vSvm3+hxyUOqC\nVBanDLQWJYNKIoB5jvLada1L62DHmvmZaqSqWjfvMn0yRnYenhSIfZsp2O4VMKo4\nGvzCtHruj6dMGS0DOfk281zpCOWeAQJPe8u1JYxR8zZhhdBTDRnhqWkzcdNho3/Y\n7KWFvCfZk2bObCeAvO/YZjn1gsVRPvTaXTlTe/kNEQKBgQDkm2RKSR1mW1pS1/FZ\n48IHIUo2Q8wS+ZjOWtBXxfpLhjjdInaGdP+jeO6KW/u9kBtny96ThG56j4kDE0fT\n8OVyRHrAx9Zmh6YFdpMsgUOv7hp1NCOKlMAa0CVIzNsAYQt2fitWfp8CXoq92awX\nLTk7ViHB8d2aTomJtilshEDrvwKBgQDW7tuhgwLRZPd4K75nCmq63mTHNGUNIQXK\nvujN+iD/AN6rqMm2HWE8qPhbOVkSNX1I2fxAbW16llabkFFUCSIRH7s337K8XtRl\nK73hy2LCYQh/GBCXzOj84Iduv4zFqzEbF5SvqgknoGpgbGOvt3CzNnJVB/cTwWxK\nn+At/sgglQKBgGjWloS2ySPSyzZoz8dgeu/YJXeDWghtrNUdsqQ+J84Q7O0EzARX\njZEDeam8C1PgzaCpTxapyhyszLG7WtpohGEF5KGaQ8nbdZjVyyLC2S7KbBnJ4m7A\nTuU9BYxAXkLrPl2F+Qv+n59vigMM2y350GBU3MBb0jvcvpiIELEyaa9zAoGBAInn\n5GAzMWGtSOOAHcD7fBO+kicGxTexUogOCk3vCbDUnArEV/hTzYogWIoft7jpPSO7\nShEEpVQcliFmbehfm84k7/kfvQ0EQ39Om5z+5LUXkV4K0Mq1nWBzqDI1EVvbRby+\nWpaDoTAdy2Nm6GdcaiFy89T/MVcpqhQPlMWuTjYpAoGAL1RID44kSEAn1rS7cwLn\nj4EMVgoxroc13rXoyWymXKDUA22EkhHM+SO43fcwMJU0Jp4FkOB2P+hgysVhvOBP\nEKg6hu/fFrz8Ab/WKdpi4P2fEJcb7gDHectX6/Bg3U9W4u95Z7CcHVNhzUq513K+\neqEjBWCwnl0KmrOMDkOjEik=\n-----END PRIVATE KEY-----\n",
  "client_email": "flexwork---notifications@appspot.gserviceaccount.com",
  "client_id": "103306594953000898990",
  "auth_uri": "https://accounts.google.com/o/oauth2/auth",
  "token_uri": "https://oauth2.googleapis.com/token",
  "auth_provider_x509_cert_url": "https://www.googleapis.com/oauth2/v1/certs",
  "client_x509_cert_url": "https://www.googleapis.com/robot/v1/metadata/x509/flexwork---notifications%40appspot.gserviceaccount.com"
}
